parentdoctype		|	parentdocid	|	treelevel	|	containerid
----------------------------|-----------------------|-------------------|-------------------
root						|	-1					|	0				|	containerid
	inc (query)			|	parentdocid	|	1				|	containerid
		out (answer)	|	parentdocid	|	2				|	containerid
	inc (query)			|	parentdocid	|	1				|	containerid
		out (answer)	|	parentdocid	|	2				|	containerid
		

direction, id, parentdoctype, parentdocid, treelevel, containerid, attachments